<svg xmlns="http://www.w3.org/2000/svg" xmlns:xlink="http://www.w3.org/1999/xlink" width="7.979" height="12.538" viewBox="0 0 7.979 12.538">
  <defs>
    <clipPath id="clip-path">
      <path id="Path_24111" data-name="Path 24111" d="M245.6-22.462h7.979V-35H245.6Z" transform="translate(-245.597 35)" fill="none"/>
    </clipPath>
  </defs>
  <g id="Group_12685" data-name="Group 12685" clip-path="url(#clip-path)">
    <g id="Group_12684" data-name="Group 12684" transform="translate(0.57 0.57)">
      <path id="Path_24110" data-name="Path 24110" d="M0,10.849,5.471,5.421,0,0" fill="none" stroke="#fff" stroke-width="1"/>
    </g>
  </g>
</svg>
