Space Jam 2,spaceJam2
Dance of the 41,danceOfThe41
Oxygen,oxygen
Ferry,ferry
I Am All the Girls,iAmAllTheGirls
The Woman in the Window,theWomanInTheWindow
Army of the Dead,armyOfTheDead
Blue Miracle,blueMiracle
Eden,eden
Dancing Queens,dancingQueens
Awake,awake
Fatherhood,fatherhood
The Ice Road,theIceRoad
